%YAML 1.1
%TAG !u! tag:unity3d.com,2011:
--- !u!74 &7400000
AnimationClip:
  m_ObjectHideFlags: 0
  m_CorrespondingSourceObject: {fileID: 0}
  m_PrefabInstance: {fileID: 0}
  m_PrefabAsset: {fileID: 0}
  m_Name: FallEffect
  serializedVersion: 6
  m_Legacy: 0
  m_Compressed: 0
  m_UseHighQualityCurve: 1
  m_RotationCurves: []
  m_CompressedRotationCurves: []
  m_EulerCurves: []
  m_PositionCurves: []
  m_ScaleCurves: []
  m_FloatCurves: []
  m_PPtrCurves:
  - curve:
    - time: 0
      value: {fileID: 21300000, guid: 17aec33ea75066f4894f440eb0aaf9ca, type: 3}
    - time: 0.05
      value: {fileID: 21300000, guid: ed127bb4ba4f127438d46264fa446ce7, type: 3}
    - time: 0.1
      value: {fileID: 21300000, guid: 8f73f2b9de2acc3468b67f557b036cc5, type: 3}
    - time: 0.15
      value: {fileID: 21300000, guid: b9b456f91e406b64aa507b4087c1617a, type: 3}
    - time: 0.2
      value: {fileID: 21300000, guid: 75c79565a87e153499111980b92b06a0, type: 3}
    - time: 0.25
      value: {fileID: 21300000, guid: 302f2eb384f92e842be22d00048a5f78, type: 3}
    attribute: m_Sprite
    path: 
    classID: 212
    script: {fileID: 0}
  m_SampleRate: 60
  m_WrapMode: 0
  m_Bounds:
    m_Center: {x: 0, y: 0, z: 0}
    m_Extent: {x: 0, y: 0, z: 0}
  m_ClipBindingConstant:
    genericBindings:
    - serializedVersion: 2
      path: 0
      attribute: 0
      script: {fileID: 0}
      typeID: 212
      customType: 23
      isPPtrCurve: 1
    pptrCurveMapping:
    - {fileID: 21300000, guid: 17aec33ea75066f4894f440eb0aaf9ca, type: 3}
    - {fileID: 21300000, guid: ed127bb4ba4f127438d46264fa446ce7, type: 3}
    - {fileID: 21300000, guid: 8f73f2b9de2acc3468b67f557b036cc5, type: 3}
    - {fileID: 21300000, guid: b9b456f91e406b64aa507b4087c1617a, type: 3}
    - {fileID: 21300000, guid: 75c79565a87e153499111980b92b06a0, type: 3}
    - {fileID: 21300000, guid: 302f2eb384f92e842be22d00048a5f78, type: 3}
  m_AnimationClipSettings:
    serializedVersion: 2
    m_AdditiveReferencePoseClip: {fileID: 0}
    m_AdditiveReferencePoseTime: 0
    m_StartTime: 0
    m_StopTime: 0.26666668
    m_OrientationOffsetY: 0
    m_Level: 0
    m_CycleOffset: 0
    m_HasAdditiveReferencePose: 0
    m_LoopTime: 1
    m_LoopBlend: 0
    m_LoopBlendOrientation: 0
    m_LoopBlendPositionY: 0
    m_LoopBlendPositionXZ: 0
    m_KeepOriginalOrientation: 0
    m_KeepOriginalPositionY: 1
    m_KeepOriginalPositionXZ: 0
    m_HeightFromFeet: 0
    m_Mirror: 0
  m_EditorCurves: []
  m_EulerEditorCurves: []
  m_HasGenericRootTransform: 0
  m_HasMotionFloatCurves: 0
  m_Events:
  - time: 0.25
    functionName: DeactivateEffect
    data: 
    objectReferenceParameter: {fileID: 0}
    floatParameter: 0
    intParameter: 0
    messageOptions: 0
